id_simu,round,recall,precision,nodes_switching,nodes_on_best_algos
2015-02-09_similitude_incprevrounds_weight0.6,1,0.136315208100276,0.0236602798602153,100.0,39.2471000218866
2015-02-09_similitude_incprevrounds_weight0.6,2,0.154004794061519,0.0282309427443304,0.0,39.2471000218866
2015-02-09_similitude_incprevrounds_weight0.6,3,0.184638007792361,0.037185517206778,63.0400525279055,59.7176625082075
2015-02-09_similitude_incprevrounds_weight0.6,4,0.198447266180198,0.0403498947687433,10.1444517399869,61.0746333989932
2015-02-09_similitude_incprevrounds_weight0.6,5,0.207215327823364,0.041843338996965,4.32917487415189,61.6633836725761
2015-02-09_similitude_incprevrounds_weight0.6,6,0.212709945241665,0.042762567838807,21.9785511052747,63.3968045524185
2015-02-09_similitude_incprevrounds_weight0.6,7,0.217094975439689,0.0433215194084518,13.6747647187568,63.8476690741957
2015-02-09_similitude_incprevrounds_weight0.6,8,0.220686340358747,0.0437771764841683,7.96016633836726,64.1015539505362
2015-02-09_similitude_incprevrounds_weight0.6,9,0.224298749369436,0.0442759790944143,14.1737798205297,65.1761873495294
2015-02-09_similitude_incprevrounds_weight0.6,10,0.22732019759889,0.0446121426572686,12.0682862770847,66.0582184285402
2015-02-09_similitude_incprevrounds_weight0.6,11,0.229454839468241,0.044856853436518,8.84000875465091,66.4762530094113
2015-02-09_similitude_incprevrounds_weight0.6,12,0.230863821307279,0.0450883671063335,10.3282994090611,66.9314948566426
2015-02-09_similitude_incprevrounds_weight0.6,13,0.232718836641027,0.0452966850297347,9.87743488728387,66.9096082293719
2015-02-09_similitude_incprevrounds_weight0.6,14,0.234050464453009,0.045475093611377,9.02166776099803,66.9577588093675
2015-02-09_similitude_incprevrounds_weight0.6,15,0.235152342449981,0.0456115775185164,9.00196979645437,67.1284745020792
2015-02-09_similitude_incprevrounds_weight0.6,16,0.236348317817612,0.0457716603783654,8.8071788137448,67.4830378638652
2015-02-09_similitude_incprevrounds_weight0.6,17,0.237292064036183,0.0458899205779592,8.07616546290217,67.566207047494
2015-02-09_similitude_incprevrounds_weight0.6,18,0.238556275619763,0.0460349757086728,7.7478660538411,67.8266579120158
2015-02-09_similitude_incprevrounds_weight0.6,19,0.23972430929507,0.0461641991967306,7.74567739111403,68.012694243817
2015-02-09_similitude_incprevrounds_weight0.6,20,0.240630006468274,0.0462561868879612,7.29919019479098,68.1286933683519
2015-02-09_similitude_incprevrounds_weight0.6,21,0.241169461245062,0.0463087147934109,7.11534252571679,68.1111840665353
2015-02-09_similitude_incprevrounds_weight0.6,22,0.242098647623834,0.0463837985700705,7.03436200481506,68.1834099365288
2015-02-09_similitude_incprevrounds_weight0.6,23,0.242609936479218,0.0464581455658756,6.79798643029109,68.336616327424
2015-02-09_similitude_incprevrounds_weight0.6,24,0.243680624905938,0.0466171923843244,6.72794922302473,68.4241628365069
2015-02-09_similitude_incprevrounds_weight0.6,25,0.244441695185468,0.0467149526528003,6.52878091486102,68.636463121033
2015-02-09_similitude_incprevrounds_weight0.6,26,0.245061543914283,0.0467858340796597,6.44123440577807,68.7458962573867
2015-02-09_similitude_incprevrounds_weight0.6,27,0.245676214706975,0.0468441371037067,6.39089516305537,68.8290654410155
2015-02-09_similitude_incprevrounds_weight0.6,28,0.24605212508479,0.0469009383513507,6.16546290216678,68.811556139199
2015-02-09_similitude_incprevrounds_weight0.6,29,0.24632934164623,0.0469544751888124,6.17859487852922,68.8246881155614
2015-02-09_similitude_incprevrounds_weight0.6,30,0.247260664179924,0.0470391927620395,5.81965419128912,68.8334427664697
2015-02-09_similitude_incprevrounds_weight0.6,31,0.248262282185939,0.0471202993445377,5.88093674764719,68.9932151455461
2015-02-09_similitude_incprevrounds_weight0.6,32,0.248584443429476,0.047196819310879,5.85029546946816,69.1573648500766
2015-02-09_similitude_incprevrounds_weight0.6,33,0.248905510788681,0.0472620692772479,5.66207047493981,69.2361567082513
2015-02-09_similitude_incprevrounds_weight0.6,34,0.249121061609405,0.0473166816233901,5.61173123221712,69.1157802582622
2015-02-09_similitude_incprevrounds_weight0.6,35,0.249228595149434,0.0473033494581691,5.56795797767564,69.1464215364412
2015-02-09_similitude_incprevrounds_weight0.6,36,0.249359851078095,0.0473279602441077,5.40818559859926,69.2077040927993
2015-02-09_similitude_incprevrounds_weight0.6,37,0.249594987764384,0.0473690632703401,5.4629021667761,69.4572116436857
2015-02-09_similitude_incprevrounds_weight0.6,38,0.249809715855624,0.0474007830718014,5.41037426132633,69.6498139636682
2015-02-09_similitude_incprevrounds_weight0.6,39,0.250461255349103,0.0474895547912567,5.44758152768658,69.5425694900416
2015-02-09_similitude_incprevrounds_weight0.6,40,0.250813835303729,0.0475306525668265,5.51761873495294,69.4878529218647
2015-02-09_similitude_incprevrounds_weight0.6,41,0.251185708115359,0.0475844558087535,5.45852484132195,69.5907200700372
2015-02-09_similitude_incprevrounds_weight0.6,42,0.251264869415973,0.0475738995143169,5.45414751586781,69.5009848982272
2015-02-09_similitude_incprevrounds_weight0.6,43,0.252153180641324,0.0476643305297382,5.39943094769096,69.6563799518494
2015-02-09_similitude_incprevrounds_weight0.6,44,0.252447779113985,0.0477139474564954,5.38411030860144,69.6038520463997
2015-02-09_similitude_incprevrounds_weight0.6,45,0.252569417118685,0.0477586569831202,5.17181002407529,69.5929087327643
2015-02-09_similitude_incprevrounds_weight0.6,46,0.252760517335566,0.0477877116691137,5.21339461588969,69.5929087327643
2015-02-09_similitude_incprevrounds_weight0.6,47,0.252853936623233,0.0477970744609663,5.20682862770847,69.6585686145765
2015-02-09_similitude_incprevrounds_weight0.6,48,0.253184652620409,0.0478127350842605,5.05143357408623,69.7242284963887
2015-02-09_similitude_incprevrounds_weight0.6,49,0.253662308642929,0.047877345955503,5.01422630772598,69.8730575618297
2015-02-09_similitude_incprevrounds_weight0.6,50,0.253988424120956,0.0478913387721454,5.20682862770847,69.9649813963668
2015-02-09_similitude_incprevrounds_weight0.6,51,0.254187363181654,0.0479442136172488,5.0295469468155,69.9387174436419
2015-02-09_similitude_incprevrounds_weight0.6,52,0.254193885554681,0.0479853052052796,5.19369665134603,69.8752462245568
2015-02-09_similitude_incprevrounds_weight0.6,53,0.253708549597404,0.047982744509595,5.08864084044649,69.8073976800175
2015-02-09_similitude_incprevrounds_weight0.6,54,0.254162268447884,0.0480207245971703,4.92230247318888,69.7898883782009
2015-02-09_similitude_incprevrounds_weight0.6,55,0.253703409240543,0.0480113433972484,5.11709345589845,69.7439264609324
2015-02-09_similitude_incprevrounds_weight0.6,56,0.254342834971819,0.0480455456042642,4.88071788137448,69.9387174436419
2015-02-09_similitude_incprevrounds_weight0.6,57,0.255034519167377,0.0480643077812666,4.93324578682425,69.9868680236376
2015-02-09_similitude_incprevrounds_weight0.6,58,0.255425210111784,0.0481154632786761,5.01422630772598,70.0722258699934
2015-02-09_similitude_incprevrounds_weight0.6,59,0.255433720764856,0.0481346276301923,4.90260450864522,69.9562267454585
2015-02-09_similitude_incprevrounds_weight0.6,60,0.255712488949663,0.0481625276701782,4.85883125410374,70.0131319763624
2015-02-09_similitude_incprevrounds_weight0.6,61,0.255599573022336,0.0481767079261069,4.99671700590939,69.9452834318232
2015-02-09_similitude_incprevrounds_weight0.6,62,0.256034488321128,0.0481844282728813,4.8456992777413,69.9606040709127
2015-02-09_similitude_incprevrounds_weight0.6,63,0.256215898213487,0.0482052394965964,4.83913328956008,70.0437732545415
2015-02-09_similitude_incprevrounds_weight0.6,64,0.256411498121746,0.0482242509697725,4.86539724228496,70.0787918581747
2015-02-09_similitude_incprevrounds_weight0.6,65,0.256026454903306,0.0482259319817666,4.76471875683957,70.2298095863428
2015-02-09_similitude_incprevrounds_weight0.6,66,0.256208493010936,0.0482540240069134,4.74939811775006,70.3611293499672
2015-02-09_similitude_incprevrounds_weight0.6,67,0.256655027580093,0.0482821198724813,4.69468154957321,70.295469468155
2015-02-09_similitude_incprevrounds_weight0.6,68,0.256683624130918,0.0482815010903937,4.81943532501642,70.2319982490698
2015-02-09_similitude_incprevrounds_weight0.6,69,0.2572591584445,0.0483122639609465,4.91135915955351,70.1707156927118
2015-02-09_similitude_incprevrounds_weight0.6,70,0.257267343333276,0.0483541592145948,4.84132195228715,70.2210549354345
2015-02-09_similitude_incprevrounds_weight0.6,71,0.257866239438348,0.048376186073531,4.7209455022981,70.2144889472532
2015-02-09_similitude_incprevrounds_weight0.6,72,0.257678568416448,0.0483766959768777,4.86320857955789,70.2495075508864
2015-02-09_similitude_incprevrounds_weight0.6,73,0.258051998778908,0.0484320794815755,4.79098270956446,70.2713941781572
2015-02-09_similitude_incprevrounds_weight0.6,74,0.257753794818923,0.0484062496082526,4.65747428321296,70.3086014445174
2015-02-09_similitude_incprevrounds_weight0.6,75,0.258126241357962,0.0484611088123324,4.90698183409937,70.3742613263296
2015-02-09_similitude_incprevrounds_weight0.6,76,0.258209105198051,0.0484603143550733,4.72313416502517,70.3698840008755
2015-02-09_similitude_incprevrounds_weight0.6,77,0.258660488609872,0.048493212530076,4.59619172685489,70.3720726636026
2015-02-09_similitude_incprevrounds_weight0.6,78,0.258890904428129,0.0485033191525543,4.86320857955789,70.2845261545196
2015-02-09_similitude_incprevrounds_weight0.6,79,0.259301587878994,0.0485333832865469,4.77785073320201,70.2473188881593
2015-02-09_similitude_incprevrounds_weight0.6,80,0.25904241470077,0.0485272647035909,4.71656817684395,70.2429415627052
2015-02-09_similitude_incprevrounds_weight0.6,81,0.259375178542361,0.0485616856561724,4.65966294594003,70.3042241190632
2015-02-09_similitude_incprevrounds_weight0.6,82,0.259560131664458,0.0485869821348094,4.9376231122784,70.415845918144
2015-02-09_similitude_incprevrounds_weight0.6,83,0.259594700392557,0.0486012297090719,4.62683300503392,70.3239220836069
2015-02-09_similitude_incprevrounds_weight0.6,84,0.25947054556105,0.0486199334477538,4.47362661413876,70.3217334208799
2015-02-09_similitude_incprevrounds_weight0.6,85,0.260077563797229,0.0486921211474488,4.68154957321077,70.3895819654191
2015-02-09_similitude_incprevrounds_weight0.6,86,0.259890567265265,0.0486870718066271,4.77128474502079,70.4771284745021
2015-02-09_similitude_incprevrounds_weight0.6,87,0.260084488982704,0.0487154372558994,4.57430509958415,70.4880717881374
2015-02-09_similitude_incprevrounds_weight0.6,88,0.259896434526181,0.0487016311222105,4.63558765594222,70.4618078354126
2015-02-09_similitude_incprevrounds_weight0.6,89,0.260512289699083,0.0487459174055374,4.73626614138761,70.3895819654191
2015-02-09_similitude_incprevrounds_weight0.6,90,0.260522770129215,0.0487629948535637,4.69030422411906,70.4486758590501
2015-02-09_similitude_incprevrounds_weight0.6,91,0.260658961643437,0.0487705664808084,4.65966294594003,70.4311665572335
2015-02-09_similitude_incprevrounds_weight0.6,92,0.260618327746628,0.0487894864320484,4.66622893412125,70.385204639965
2015-02-09_similitude_incprevrounds_weight0.6,93,0.260719996770207,0.0487879374128193,4.66622893412125,70.3895819654191
2015-02-09_similitude_incprevrounds_weight0.6,94,0.260835437072,0.0488175731271993,4.71437951411688,70.4858831254104
2015-02-09_similitude_incprevrounds_weight0.6,95,0.260996072515103,0.0488415055286601,4.74064346684176,70.4946377763187
2015-02-09_similitude_incprevrounds_weight0.6,96,0.260670809547604,0.0488572162795429,4.65090829503174,70.564674983585
2015-02-09_similitude_incprevrounds_weight0.6,97,0.26092612966266,0.0488677141910483,4.64215364412344,70.5865616108558
2015-02-09_similitude_incprevrounds_weight0.6,98,0.261535306240942,0.048902554186302,4.71437951411688,70.6106369008536
2015-02-09_similitude_incprevrounds_weight0.6,99,0.26123088201673,0.0489093825188749,4.55898446049464,70.5252790544977
2015-02-09_similitude_incprevrounds_weight0.6,100,0.261022245694899,0.0489134611557809,4.72970015320639,70.4968264390457
