id_simu,round,recall,precision,nodes_switching,nodes_on_best_algos
2015-02-09_similitude_incsimnodes_weight0.8,1,0.13569366892719,0.0235871179961802,100.0,39.435325016415
2015-02-09_similitude_incsimnodes_weight0.8,2,0.151856679253408,0.0280403985940377,0.0,39.435325016415
2015-02-09_similitude_incsimnodes_weight0.8,3,0.196984320653495,0.03849220696065,65.0908295031736,65.5504486758591
2015-02-09_similitude_incsimnodes_weight0.8,4,0.213685816390243,0.0419188032211144,8.71306631648063,66.7542131757496
2015-02-09_similitude_incsimnodes_weight0.8,5,0.222755869969569,0.0436053155293087,3.24140949879624,67.0606259575399
2015-02-09_similitude_incsimnodes_weight0.8,6,0.227318521877251,0.0445835751946626,16.7848544539286,68.0236375574524
2015-02-09_similitude_incsimnodes_weight0.8,7,0.230233588351907,0.0451235481467886,7.29919019479098,68.0674108119939
2015-02-09_similitude_incsimnodes_weight0.8,8,0.23261887627573,0.0454877265951825,5.09958415408186,67.982052965638
2015-02-09_similitude_incsimnodes_weight0.8,9,0.234230406416163,0.0458226231962693,7.64281024294156,68.3957102210549
2015-02-09_similitude_incsimnodes_weight0.8,10,0.236125467938094,0.0460497915231428,6.84832567301379,68.4657474283213
2015-02-09_similitude_incsimnodes_weight0.8,11,0.236941480953175,0.0462026135952853,6.04946377763187,68.6014445173999
2015-02-09_similitude_incsimnodes_weight0.8,12,0.238227446828509,0.04636021496162,6.66666666666667,68.6561610855767
2015-02-09_similitude_incsimnodes_weight0.8,13,0.238832855071127,0.0464932149107723,6.56161085576713,68.7415189319326
2015-02-09_similitude_incsimnodes_weight0.8,14,0.239174371424622,0.0465867272319099,6.26833005033924,68.7021230028453
2015-02-09_similitude_incsimnodes_weight0.8,15,0.239930009573455,0.0467120041217961,6.44342306850514,68.7021230028453
2015-02-09_similitude_incsimnodes_weight0.8,16,0.240421641260317,0.0467658386793744,6.30115999124535,68.7218209673889
2015-02-09_similitude_incsimnodes_weight0.8,17,0.241792781268415,0.0469031090911852,6.22017947034362,68.811556139199
2015-02-09_similitude_incsimnodes_weight0.8,18,0.242443891724428,0.0469946034046099,6.38214051214708,68.9778945064566
2015-02-09_similitude_incsimnodes_weight0.8,19,0.242642705107583,0.0470675588288457,6.38432917487415,69.0741956664478
2015-02-09_similitude_incsimnodes_weight0.8,20,0.242969583600147,0.0471390475926793,6.14576493762311,68.9450645655505
2015-02-09_similitude_incsimnodes_weight0.8,21,0.24336196332362,0.0472153484204214,6.20704749398118,68.9144232873714
2015-02-09_similitude_incsimnodes_weight0.8,22,0.243319080616663,0.0472485148405391,6.32961260669731,68.7568395710221
2015-02-09_similitude_incsimnodes_weight0.8,23,0.243743878887517,0.0472991796224792,5.93565331582403,68.8597067191946
2015-02-09_similitude_incsimnodes_weight0.8,24,0.244465538834858,0.047374636375546,6.10636900853579,68.8575180564675
2015-02-09_similitude_incsimnodes_weight0.8,25,0.244818744222972,0.0474196498722995,6.12606697307945,69.05012037645
2015-02-09_similitude_incsimnodes_weight0.8,26,0.244864161342365,0.0474646707970952,5.94221930400525,69.0282337491793
2015-02-09_similitude_incsimnodes_weight0.8,27,0.245319036099821,0.0475365065164201,6.26614138761217,69.1507988618954
2015-02-09_similitude_incsimnodes_weight0.8,28,0.245317932075018,0.0475761047588687,5.95972860582184,69.137666885533
2015-02-09_similitude_incsimnodes_weight0.8,29,0.246231950421856,0.0476552915637009,6.15014226307726,69.1201575837163
2015-02-09_similitude_incsimnodes_weight0.8,30,0.246304148384353,0.0476771781909716,6.3887065003283,69.1814401400744
2015-02-09_similitude_incsimnodes_weight0.8,31,0.246791360481746,0.047693238806507,6.00350186036332,69.2558546727949
2015-02-09_similitude_incsimnodes_weight0.8,32,0.246796837496839,0.0477249263524899,6.13482162398774,69.3280805427884
2015-02-09_similitude_incsimnodes_weight0.8,33,0.246702425924963,0.0477672445460043,6.15670825125848,69.4134383891442
2015-02-09_similitude_incsimnodes_weight0.8,34,0.246866877165797,0.0478124881141472,5.92033267673452,69.2646093237032
2015-02-09_similitude_incsimnodes_weight0.8,35,0.247096513715823,0.0478326967666606,5.79557890129131,69.3718537973298
2015-02-09_similitude_incsimnodes_weight0.8,36,0.247240539250506,0.0478585334090435,6.08229371853797,69.2711753118844
2015-02-09_similitude_incsimnodes_weight0.8,37,0.247146200993726,0.0478866733583916,6.05165244035894,69.2930619391552
2015-02-09_similitude_incsimnodes_weight0.8,38,0.247671192258508,0.0479254439552712,5.97942657036551,69.2142700809805
2015-02-09_similitude_incsimnodes_weight0.8,39,0.248365596326174,0.0479944807804038,6.03633180126942,69.3893630991464
2015-02-09_similitude_incsimnodes_weight0.8,40,0.248823357527406,0.0480338767094911,5.96848325673014,69.4462683300503
2015-02-09_similitude_incsimnodes_weight0.8,41,0.249111985526106,0.048060854264836,5.96410593127599,69.4681549573211
2015-02-09_similitude_incsimnodes_weight0.8,42,0.248454822004047,0.0480432773685203,5.86561610855767,69.5732107682206
2015-02-09_similitude_incsimnodes_weight0.8,43,0.24851581404543,0.0480745439789071,6.00569052309039,69.5316261764062
2015-02-09_similitude_incsimnodes_weight0.8,44,0.248808232701308,0.0481168581249638,5.87655942219304,69.5622674545853
2015-02-09_similitude_incsimnodes_weight0.8,45,0.249263057399584,0.0481618618341993,5.8634274458306,69.5338148391333
2015-02-09_similitude_incsimnodes_weight0.8,46,0.24964265352512,0.0481827082453937,5.93346465309696,69.4003064127818
2015-02-09_similitude_incsimnodes_weight0.8,47,0.248994740148616,0.0481822954836933,5.95753994309477,69.3061939155176
2015-02-09_similitude_incsimnodes_weight0.8,48,0.249395181025673,0.0482218998568498,6.17421755307507,69.4024950755089
2015-02-09_similitude_incsimnodes_weight0.8,49,0.249405470001467,0.0482431609767497,5.8962573867367,69.4440796673233
2015-02-09_similitude_incsimnodes_weight0.8,50,0.249797116041791,0.0482839929591444,6.00131319763624,69.4003064127818
2015-02-09_similitude_incsimnodes_weight0.8,51,0.250503251791406,0.0483397744030247,6.09980302035456,69.3827971109652
2015-02-09_similitude_incsimnodes_weight0.8,52,0.249826897574156,0.0483197637723771,5.94440796673233,69.3412125191508
2015-02-09_similitude_incsimnodes_weight0.8,53,0.24993739046998,0.048348643271106,5.7802582622018,69.3368351936967
2015-02-09_similitude_incsimnodes_weight0.8,54,0.250100918790232,0.0484037960964514,6.00569052309039,69.345589844605
2015-02-09_similitude_incsimnodes_weight0.8,55,0.250612311168716,0.0484371471475306,5.86561610855767,69.4003064127818
2015-02-09_similitude_incsimnodes_weight0.8,56,0.250955999943347,0.0484622592550602,5.85686145764938,69.4200043773255
2015-02-09_similitude_incsimnodes_weight0.8,57,0.251085882237949,0.0484676788008605,5.96191726854892,69.4112497264172
2015-02-09_similitude_incsimnodes_weight0.8,58,0.251171559288886,0.0484781092595335,5.94440796673233,69.3302692055154
2015-02-09_similitude_incsimnodes_weight0.8,59,0.251093152250239,0.0484952050507775,6.04727511490479,69.4046837382359
2015-02-09_similitude_incsimnodes_weight0.8,60,0.251673166244984,0.0485316931850989,5.96629459400306,69.465966294594
2015-02-09_similitude_incsimnodes_weight0.8,61,0.25150910399294,0.0485269605576328,5.84591814401401,69.4440796673233
2015-02-09_similitude_incsimnodes_weight0.8,62,0.252198409784935,0.0485905524955184,6.00131319763624,69.4112497264172
2015-02-09_similitude_incsimnodes_weight0.8,63,0.252430213645689,0.0486255169290364,5.97942657036551,69.4243817027796
2015-02-09_similitude_incsimnodes_weight0.8,64,0.252785682179778,0.0486401080138835,5.84154081855986,69.4769096082294
2015-02-09_similitude_incsimnodes_weight0.8,65,0.253042385543194,0.0486534023827185,5.88969139855548,69.5097395491355
2015-02-09_similitude_incsimnodes_weight0.8,66,0.252906618398864,0.0486898800948364,5.91814401400744,69.4615889691399
2015-02-09_similitude_incsimnodes_weight0.8,67,0.253293539432484,0.0487240649221926,6.02757715036113,69.5469468154957
2015-02-09_similitude_incsimnodes_weight0.8,68,0.252884909480736,0.0487282338035775,5.94440796673233,69.5163055373167
2015-02-09_similitude_incsimnodes_weight0.8,69,0.252331744028873,0.0487071809525838,5.8546727949223,69.553512803677
2015-02-09_similitude_incsimnodes_weight0.8,70,0.252291078149767,0.0487363861005926,5.84810680674108,69.5097395491355
2015-02-09_similitude_incsimnodes_weight0.8,71,0.252232066247693,0.0487584679892089,5.78244692492887,69.5294375136792
2015-02-09_similitude_incsimnodes_weight0.8,72,0.252119066696023,0.04878103349725,5.84810680674108,69.4725322827752
2015-02-09_similitude_incsimnodes_weight0.8,73,0.252334916132518,0.0487806166091115,5.84810680674108,69.4572116436857
2015-02-09_similitude_incsimnodes_weight0.8,74,0.253065552044946,0.0488261403990417,5.9553512803677,69.5316261764062
2015-02-09_similitude_incsimnodes_weight0.8,75,0.253636107127991,0.0488544596362875,5.95097395491355,69.6169840227621
2015-02-09_similitude_incsimnodes_weight0.8,76,0.252976107199645,0.0488517478591174,5.83278616765157,69.5381921645874
2015-02-09_similitude_incsimnodes_weight0.8,77,0.253080646937524,0.0488823869703036,5.87655942219304,69.5907200700372
2015-02-09_similitude_incsimnodes_weight0.8,78,0.253382977627032,0.0489236746970276,6.00569052309039,69.5666447800394
2015-02-09_similitude_incsimnodes_weight0.8,79,0.253398099209021,0.0489516509035986,5.9881812212738,69.6104180345809
2015-02-09_similitude_incsimnodes_weight0.8,80,0.253152137744241,0.0489568284841713,5.81965419128912,69.6541912891224
2015-02-09_similitude_incsimnodes_weight0.8,81,0.253393696874754,0.0489630818062487,5.80652221492668,69.6848325673014
2015-02-09_similitude_incsimnodes_weight0.8,82,0.253560481871147,0.0489759600167485,5.91157802582622,69.5929087327643
2015-02-09_similitude_incsimnodes_weight0.8,83,0.253201692218246,0.0489764040090693,5.75618297220398,69.6104180345809
2015-02-09_similitude_incsimnodes_weight0.8,84,0.253322968444379,0.0490044484380328,5.82403151674327,69.5666447800394
2015-02-09_similitude_incsimnodes_weight0.8,85,0.252945782377665,0.0490053091103187,5.81527686583498,69.5600787918582
2015-02-09_similitude_incsimnodes_weight0.8,86,0.253960906879935,0.0490530159061669,5.79776756401838,69.553512803677
2015-02-09_similitude_incsimnodes_weight0.8,87,0.253709025328076,0.049046355954712,5.8962573867367,69.5797767564018
2015-02-09_similitude_incsimnodes_weight0.8,88,0.253488688840956,0.0490655328090826,5.89844604946378,69.6257386736704
2015-02-09_similitude_incsimnodes_weight0.8,89,0.253233511782439,0.0490651159209441,6.03414313854235,69.7110965200263
2015-02-09_similitude_incsimnodes_weight0.8,90,0.252941720970608,0.0490676337235805,5.73867367038739,69.5097395491355
2015-02-09_similitude_incsimnodes_weight0.8,91,0.253001963836086,0.0490815994762199,5.69271175311885,69.4462683300503
2015-02-09_similitude_incsimnodes_weight0.8,92,0.253209333787266,0.0491007817353632,6.14576493762311,69.5097395491355
2015-02-09_similitude_incsimnodes_weight0.8,93,0.253489424662209,0.04912100081008,5.83278616765157,69.5600787918582
2015-02-09_similitude_incsimnodes_weight0.8,94,0.253505244250377,0.0491478900950126,5.81089954038083,69.6826439045743
2015-02-09_similitude_incsimnodes_weight0.8,95,0.253838635447109,0.0491768638206377,6.05821842854016,69.6520026263953
2015-02-09_similitude_incsimnodes_weight0.8,96,0.254322008403964,0.0492032760893349,5.91157802582622,69.7001532063909
2015-02-09_similitude_incsimnodes_weight0.8,97,0.254343345469673,0.0492062564386712,5.905012037645,69.7286058218429
2015-02-09_similitude_incsimnodes_weight0.8,98,0.254670160803675,0.0492350312885293,5.85248413219523,69.7176625082075
2015-02-09_similitude_incsimnodes_weight0.8,99,0.254997934200655,0.0492610950523956,5.73867367038739,69.7680017509302
2015-02-09_similitude_incsimnodes_weight0.8,100,0.255281753889462,0.0492650579933292,5.93346465309696,69.7176625082075
