id_simu,round,recall,precision,nodes_switching,nodes_on_best_algos
2015-02-09_similitude_incsimnodes_weight0.4,1,0.136363532076438,0.023709262212218,100.0,39.1617421755308
2015-02-09_similitude_incsimnodes_weight0.4,2,0.153493916422119,0.0283393545640594,0.0,39.1617421755308
2015-02-09_similitude_incsimnodes_weight0.4,3,0.192524026227883,0.0381001356544435,64.8850952068286,64.184723134165
2015-02-09_similitude_incsimnodes_weight0.4,4,0.20808597661831,0.0416005333598308,9.84022762092362,65.6992777413001
2015-02-09_similitude_incsimnodes_weight0.4,5,0.217334411498882,0.0432801379089944,3.97242284963887,65.9706719194572
2015-02-09_similitude_incsimnodes_weight0.4,6,0.221691307673457,0.0442746284658491,22.5848106806741,67.9536003501861
2015-02-09_similitude_incsimnodes_weight0.4,7,0.224168124370319,0.0448281910105657,11.4335740862333,67.894506456555
2015-02-09_similitude_incsimnodes_weight0.4,8,0.226519394076713,0.0451771360872275,7.68439483475596,67.5289997811337
2015-02-09_similitude_incsimnodes_weight0.4,9,0.228434152479934,0.0454700000045169,12.8321295688334,67.8069599474721
2015-02-09_similitude_incsimnodes_weight0.4,10,0.229491158787588,0.0456786962473563,11.9435325016415,67.8988837820092
2015-02-09_similitude_incsimnodes_weight0.4,11,0.231103596712158,0.0458808869945241,9.74830378638652,67.9798643029109
2015-02-09_similitude_incsimnodes_weight0.4,12,0.2317860313257,0.0460276719143018,11.0352374699059,67.9864302910921
2015-02-09_similitude_incsimnodes_weight0.4,13,0.232021854474097,0.0461525529881205,11.2409717662508,68.1221273801707
2015-02-09_similitude_incsimnodes_weight0.4,14,0.23271242162518,0.0462510337539692,10.4114685926899,68.2315605165244
2015-02-09_similitude_incsimnodes_weight0.4,15,0.233815471095844,0.0464142801397032,10.4661851608667,68.4000875465091
2015-02-09_similitude_incsimnodes_weight0.4,16,0.234332607366356,0.0465080799708635,10.9258043335522,68.18997592471
2015-02-09_similitude_incsimnodes_weight0.4,17,0.234512186825585,0.0465764614689889,10.8098052090173,68.0827314510834
2015-02-09_similitude_incsimnodes_weight0.4,18,0.235548514614453,0.0466810482807326,10.4639964981396,67.9448456992777
2015-02-09_similitude_incsimnodes_weight0.4,19,0.236146485140205,0.0467307829601313,10.7835412562924,68.1286933683519
2015-02-09_similitude_incsimnodes_weight0.4,20,0.236609579722665,0.0468608937481541,10.6281462026702,68.1855985992559
2015-02-09_similitude_incsimnodes_weight0.4,21,0.237080155972247,0.0469069598874573,10.6325235281243,68.2249945283432
2015-02-09_similitude_incsimnodes_weight0.4,22,0.237269804952117,0.0469620328935488,10.6784854453929,68.1965419128912
2015-02-09_similitude_incsimnodes_weight0.4,23,0.237232552370583,0.046985541885818,10.5843729481287,68.2118625519807
2015-02-09_similitude_incsimnodes_weight0.4,24,0.237274485025367,0.0470682381266561,10.5318450426789,68.4197855110528
2015-02-09_similitude_incsimnodes_weight0.4,25,0.237766898652438,0.0471237002480718,10.6412781790326,68.2600131319764
2015-02-09_similitude_incsimnodes_weight0.4,26,0.238097084543696,0.0471627879148032,10.5756182972204,68.1571459838039
2015-02-09_similitude_incsimnodes_weight0.4,27,0.238653243350545,0.0472205269219841,10.2801488290654,68.1877872619829
2015-02-09_similitude_incsimnodes_weight0.4,28,0.23979639951194,0.0472828516986884,10.7813525935653,68.4175968483257
2015-02-09_similitude_incsimnodes_weight0.4,29,0.239715405195866,0.0473699075260594,10.3873933026921,68.5226526592252
2015-02-09_similitude_incsimnodes_weight0.4,30,0.239749185579942,0.0473880445190916,9.97373604727512,68.5029546946815
2015-02-09_similitude_incsimnodes_weight0.4,31,0.240465665257406,0.0474322346617715,10.5165244035894,68.5620485883125
2015-02-09_similitude_incsimnodes_weight0.4,32,0.240449231109448,0.047464960380643,10.5909389363099,68.5511052746772
2015-02-09_similitude_incsimnodes_weight0.4,33,0.240187296830596,0.0475145742768764,10.2341869117969,68.5532939374042
2015-02-09_similitude_incsimnodes_weight0.4,34,0.240188097224108,0.0475391796131,10.3086014445174,68.5686145764938
2015-02-09_similitude_incsimnodes_weight0.4,35,0.241302320352648,0.0475854714604925,10.6215802144889,68.3803895819654
2015-02-09_similitude_incsimnodes_weight0.4,36,0.240585342897185,0.0475819279113153,10.2298095863427,68.3453709783322
2015-02-09_similitude_incsimnodes_weight0.4,37,0.240968579902439,0.047638803688166,10.1663383672576,68.4307288246881
2015-02-09_similitude_incsimnodes_weight0.4,38,0.241432492923347,0.047724682644695,10.4399212081418,68.4175968483257
2015-02-09_similitude_incsimnodes_weight0.4,39,0.241579314183254,0.0477565745872895,10.4114685926899,68.5248413219523
2015-02-09_similitude_incsimnodes_weight0.4,40,0.241690022966997,0.0478047251672851,9.99124534909171,68.4679360910484
2015-02-09_similitude_incsimnodes_weight0.4,41,0.241675442874527,0.0477926354112689,10.4027139417816,68.4088421974174
2015-02-09_similitude_incsimnodes_weight0.4,42,0.242254390540367,0.0478385540088366,10.3348653972423,68.3628802801488
2015-02-09_similitude_incsimnodes_weight0.4,43,0.242057841319436,0.0478442990700328,10.2166776099803,68.4044648719632
2015-02-09_similitude_incsimnodes_weight0.4,44,0.242136478867132,0.0478605577074339,10.474939811775,68.4394834755964
2015-02-09_similitude_incsimnodes_weight0.4,45,0.242629358742118,0.0479145447213684,10.562486320858,68.6298971328518
2015-02-09_similitude_incsimnodes_weight0.4,46,0.242990277267165,0.047954149094525,10.4114685926899,68.6758590501204
2015-02-09_similitude_incsimnodes_weight0.4,47,0.242976244284444,0.0479931281354738,10.5581089954038,68.4788794046838
2015-02-09_similitude_incsimnodes_weight0.4,48,0.243179543615506,0.0479831423617815,10.6018822499453,68.4110308601445
2015-02-09_similitude_incsimnodes_weight0.4,49,0.24296611728688,0.0479477034924439,10.3808273145108,68.3716349310571
2015-02-09_similitude_incsimnodes_weight0.4,50,0.242480552482514,0.0479671091358171,10.4202232435982,68.6277084701248
2015-02-09_similitude_incsimnodes_weight0.4,51,0.242647164930119,0.0479848813989407,10.4880717881374,68.7130663164806
2015-02-09_similitude_incsimnodes_weight0.4,52,0.243044972799338,0.0480521757628536,10.4136572554169,68.5883125410374
2015-02-09_similitude_incsimnodes_weight0.4,53,0.2431234836304,0.0480788245353986,10.326110746334,68.5489166119501
2015-02-09_similitude_incsimnodes_weight0.4,54,0.243175637784382,0.0481138431390318,10.2057342963449,68.4044648719632
2015-02-09_similitude_incsimnodes_weight0.4,55,0.243200262584717,0.0481313881494521,10.295469468155,68.5817465528562
2015-02-09_similitude_incsimnodes_weight0.4,56,0.243177334994628,0.04812367571889,10.5975049244911,68.6583497483038
2015-02-09_similitude_incsimnodes_weight0.4,57,0.243139248197201,0.0481453539020915,10.4027139417816,68.6539724228496
2015-02-09_similitude_incsimnodes_weight0.4,58,0.242956923843013,0.0481393090240834,10.4990151017728,68.5817465528562
2015-02-09_similitude_incsimnodes_weight0.4,59,0.243049257104283,0.0481574456623777,10.5187130663165,68.5576712628584
2015-02-09_similitude_incsimnodes_weight0.4,60,0.243023948353676,0.0481876700524182,10.503392427227,68.5270299846794
2015-02-09_similitude_incsimnodes_weight0.4,61,0.243181290257436,0.0482135171170046,10.3392427226964,68.336616327424
2015-02-09_similitude_incsimnodes_weight0.4,62,0.242895076680675,0.0482152089571919,10.5865616108558,68.4460494637776
2015-02-09_similitude_incsimnodes_weight0.4,63,0.242998662162876,0.0482049951977989,10.2845261545196,68.4307288246881
2015-02-09_similitude_incsimnodes_weight0.4,64,0.24329022440645,0.0482318844827315,10.3720726636025,68.5401619610418
2015-02-09_similitude_incsimnodes_weight0.4,65,0.243051480530499,0.0482106368360515,10.3917706281462,68.6320857955789
2015-02-09_similitude_incsimnodes_weight0.4,66,0.243038068844372,0.0482314082623571,10.5865616108558,68.487634055592
2015-02-09_similitude_incsimnodes_weight0.4,67,0.243530796592369,0.0482899872967557,10.4924491135916,68.4329174874152
2015-02-09_similitude_incsimnodes_weight0.4,68,0.24341277479536,0.0482503829235992,10.2035456336179,68.3212956883344
2015-02-09_similitude_incsimnodes_weight0.4,69,0.243523867854961,0.048287694411994,10.4902604508645,68.4219741737798
2015-02-09_similitude_incsimnodes_weight0.4,70,0.243919353470905,0.048342098314067,10.2757715036113,68.6495950973955
2015-02-09_similitude_incsimnodes_weight0.4,71,0.243784543728508,0.0483264650088737,10.3282994090611,68.5204639964981
2015-02-09_similitude_incsimnodes_weight0.4,72,0.24393473378893,0.0483489769683521,10.3195447581528,68.485445392865
2015-02-09_similitude_incsimnodes_weight0.4,73,0.243830041753232,0.0483566579635232,10.2276209236157,68.1987305756183
2015-02-09_similitude_incsimnodes_weight0.4,74,0.243717529465655,0.0483770854823092,10.5165244035894,68.2446924928868
2015-02-09_similitude_incsimnodes_weight0.4,75,0.244490488801821,0.048405850763865,10.4574305099584,68.0783541256292
2015-02-09_similitude_incsimnodes_weight0.4,76,0.244790680159213,0.0484442044726061,10.3589406872401,68.3738235937842
2015-02-09_similitude_incsimnodes_weight0.4,77,0.244564869901164,0.0484254445063741,10.3304880717881,68.4920113810462
2015-02-09_similitude_incsimnodes_weight0.4,78,0.244702324834259,0.0484538110435385,10.3939592908733,68.7261982928431
2015-02-09_similitude_incsimnodes_weight0.4,79,0.245433362201777,0.0484506843824998,10.4005252790545,68.6080105055811
2015-02-09_similitude_incsimnodes_weight0.4,80,0.245698623317841,0.0484681936843164,10.1291311008974,68.575180564675
2015-02-09_similitude_incsimnodes_weight0.4,81,0.246046564842092,0.0485267664677743,10.4530531845043,68.5095206828628
2015-02-09_similitude_incsimnodes_weight0.4,82,0.24538070091936,0.0484846586412841,10.4683738235938,68.3825782446925
2015-02-09_similitude_incsimnodes_weight0.4,83,0.244405386157997,0.048432756068042,10.2298095863427,68.4372948128693
2015-02-09_similitude_incsimnodes_weight0.4,84,0.245137396415035,0.0485048887765564,10.4421098708689,68.487634055592
2015-02-09_similitude_incsimnodes_weight0.4,85,0.245887300065071,0.0485434509293667,10.5187130663165,68.6277084701248
2015-02-09_similitude_incsimnodes_weight0.4,86,0.245158681215283,0.0485196883054727,10.2735828408842,68.4679360910484
2015-02-09_similitude_incsimnodes_weight0.4,87,0.246125083970036,0.0485689150718293,10.4224119063252,68.4898227183191
2015-02-09_similitude_incsimnodes_weight0.4,88,0.245977136870016,0.0485990963355107,10.4246005690523,68.4307288246881
2015-02-09_similitude_incsimnodes_weight0.4,89,0.246269941636373,0.0486155541648298,10.2801488290654,68.4000875465091
2015-02-09_similitude_incsimnodes_weight0.4,90,0.245727922259336,0.048625142592015,10.2232435981615,68.4723134165025
2015-02-09_similitude_incsimnodes_weight0.4,91,0.24600896937264,0.0486476545514935,10.4574305099584,68.5970671919457
2015-02-09_similitude_incsimnodes_weight0.4,92,0.246016274808196,0.0486589105312328,10.207922959072,68.872838695557
2015-02-09_similitude_incsimnodes_weight0.4,93,0.246479370213775,0.0486945544670737,10.0372072663603,68.8028014882907
2015-02-09_similitude_incsimnodes_weight0.4,94,0.246761409340966,0.0486866335924423,10.2998467936091,68.695557014664
2015-02-09_similitude_incsimnodes_weight0.4,95,0.246155612654031,0.048647237663355,10.3830159772379,68.516086671044
2015-02-09_similitude_incsimnodes_weight0.4,96,0.246059473153007,0.0486445278904548,10.3370540599694,68.5029546946815
2015-02-09_similitude_incsimnodes_weight0.4,97,0.24584938655038,0.0486113852834449,10.2473188881593,68.6277084701248
2015-02-09_similitude_incsimnodes_weight0.4,98,0.24618351661038,0.0486792037662703,10.4618078354126,68.752462245568
2015-02-09_similitude_incsimnodes_weight0.4,99,0.245724728263511,0.0486375149524213,10.5099584154082,68.6452177719413
2015-02-09_similitude_incsimnodes_weight0.4,100,0.245887113999574,0.0486533567016839,10.4880717881374,68.6452177719413
