id_simu,round,recall,precision,nodes_switching,nodes_on_best_algos
2015-02-09_similitude_incprevrounds_weight0.3,1,0.135950870692319,0.0235160406907357,100.0,38.9800831691836
2015-02-09_similitude_incprevrounds_weight0.3,2,0.152470009987854,0.0281526038720397,0.0,38.9800831691836
2015-02-09_similitude_incprevrounds_weight0.3,3,0.184969069597594,0.0371682148127587,62.5563580652221,59.8664915736485
2015-02-09_similitude_incprevrounds_weight0.3,4,0.199429715129401,0.040377392495183,10.4486758590501,61.2650470562486
2015-02-09_similitude_incprevrounds_weight0.3,5,0.207784195381735,0.0418793895927665,4.90917049682644,61.6940249507551
2015-02-09_similitude_incprevrounds_weight0.3,6,0.213003305808803,0.0426814587962451,23.4471437951412,62.7927336397461
2015-02-09_similitude_incprevrounds_weight0.3,7,0.216473273585137,0.0431521450462321,15.3644123440578,62.8211862551981
2015-02-09_similitude_incprevrounds_weight0.3,8,0.219047242863235,0.0434825288959856,10.4114685926899,62.7555263733859
2015-02-09_similitude_incprevrounds_weight0.3,9,0.22149861863276,0.0438943867751543,15.9400306412782,63.6178594878529
2015-02-09_similitude_incprevrounds_weight0.3,10,0.223832087822234,0.0443121089685073,15.0295469468155,64.4473626614139
2015-02-09_similitude_incprevrounds_weight0.3,11,0.226274058008728,0.0446088470307744,12.5060188224995,64.7669074195666
2015-02-09_similitude_incprevrounds_weight0.3,12,0.228411471589168,0.044843768149583,13.7601225651127,65.3447143795141
2015-02-09_similitude_incprevrounds_weight0.3,13,0.230468215709249,0.0450674426191614,13.6878966951193,65.5613919894944
2015-02-09_similitude_incprevrounds_weight0.3,14,0.231738689981446,0.0451931343929162,13.1297876997155,65.2856204858831
2015-02-09_similitude_incprevrounds_weight0.3,15,0.23376102568368,0.0454073688445035,13.0444298533596,65.2199606040709
2015-02-09_similitude_incprevrounds_weight0.3,16,0.234704379209519,0.0455382717199895,13.1057124097177,65.2615451958853
2015-02-09_similitude_incprevrounds_weight0.3,17,0.235847811111426,0.0457207123828821,13.1385423506238,65.6533158240315
2015-02-09_similitude_incprevrounds_weight0.3,18,0.236703433287447,0.0457664186633201,12.9393740424601,65.8218428540162
2015-02-09_similitude_incprevrounds_weight0.3,19,0.237347086782106,0.0458502131791566,12.9459400306413,66.143576274896
2015-02-09_similitude_incprevrounds_weight0.3,20,0.238303528924439,0.0459531123956474,12.9722039833662,66.259575399431
2015-02-09_similitude_incprevrounds_weight0.3,21,0.23972357710089,0.0460733846236019,12.9525060188225,66.29021667761
2015-02-09_similitude_incprevrounds_weight0.3,22,0.24034505567368,0.0461467569359762,12.9525060188225,66.4806303348654
2015-02-09_similitude_incprevrounds_weight0.3,23,0.241447184119781,0.0462618180621995,12.7708470124754,66.4871963230466
2015-02-09_similitude_incprevrounds_weight0.3,24,0.24185853298302,0.0463249766151808,12.8824688115561,66.5791201575837
2015-02-09_similitude_incprevrounds_weight0.3,25,0.242807822435625,0.0464049816646798,12.7752243379295,66.7520245130225
2015-02-09_similitude_incprevrounds_weight0.3,26,0.243179545175537,0.0464143616477958,12.7183191070256,66.883344276647
2015-02-09_similitude_incprevrounds_weight0.3,27,0.243913419155524,0.0464900268449318,12.6876778288466,66.9643247975487
2015-02-09_similitude_incprevrounds_weight0.3,28,0.244448974226404,0.0466051143678161,12.5694900415846,67.121908513898
2015-02-09_similitude_incprevrounds_weight0.3,29,0.244948832573545,0.0466405498595878,12.6679798643029,66.9358721820967
2015-02-09_similitude_incprevrounds_weight0.3,30,0.245709110354912,0.0467267525329847,12.878091486102,67.0759465966295
2015-02-09_similitude_incprevrounds_weight0.3,31,0.246288110462478,0.0467561434549442,12.5191507988619,67.0343620048151
2015-02-09_similitude_incprevrounds_weight0.3,32,0.247282790156322,0.0468474419572736,12.8080542788356,67.209455022981
2015-02-09_similitude_incprevrounds_weight0.3,33,0.247374371406555,0.0468879903086946,12.67016852703,67.1941343838914
2015-02-09_similitude_incprevrounds_weight0.3,34,0.247889243380273,0.0469319720073053,12.7095644561173,67.3166994966076
2015-02-09_similitude_incprevrounds_weight0.3,35,0.248119993784276,0.0469613900479201,12.6920551543007,67.4677172247757
2015-02-09_similitude_incprevrounds_weight0.3,36,0.247761784413946,0.046974105136144,12.5891880061283,67.3976800175093
2015-02-09_similitude_incprevrounds_weight0.3,37,0.248271196095207,0.0469907806616836,12.9349967170059,67.5136791420442
2015-02-09_similitude_incprevrounds_weight0.3,38,0.248639326151397,0.0470299925390928,12.4797548697746,67.5530750711315
2015-02-09_similitude_incprevrounds_weight0.3,39,0.249048118067212,0.0471033597898049,12.5694900415846,67.5596410593128
2015-02-09_similitude_incprevrounds_weight0.3,40,0.249165789682277,0.0471406046249234,12.7139417815715,67.6318669293062
2015-02-09_similitude_incprevrounds_weight0.3,41,0.249858526112859,0.0472216893678598,12.4994528343182,67.7128474502079
2015-02-09_similitude_incprevrounds_weight0.3,42,0.250046767611542,0.0472688518427964,12.5563580652222,67.686583497483
2015-02-09_similitude_incprevrounds_weight0.3,43,0.250467914087196,0.0472763558292892,12.6088859706719,67.7369227402057
2015-02-09_similitude_incprevrounds_weight0.3,44,0.250914168921776,0.0473051211108451,12.5563580652222,67.6187349529438
2015-02-09_similitude_incprevrounds_weight0.3,45,0.250953862043285,0.0473126539886839,12.5782446924929,67.6887721602101
2015-02-09_similitude_incprevrounds_weight0.3,46,0.251409619745427,0.0473922771722254,12.7423943970234,67.7303567520245
2015-02-09_similitude_incprevrounds_weight0.3,47,0.251721923708308,0.047451075591016,12.3331144670606,67.7347340774787
2015-02-09_similitude_incprevrounds_weight0.3,48,0.251755578014696,0.0474464726302291,12.6679798643029,67.5902823374918
2015-02-09_similitude_incprevrounds_weight0.3,49,0.251602101445805,0.0474553252689126,12.6833005033924,67.448019260232
2015-02-09_similitude_incprevrounds_weight0.3,50,0.25143786523471,0.0474486550586968,12.5848106806741,67.4655285620486
2015-02-09_similitude_incprevrounds_weight0.3,51,0.252230807377492,0.0474678614738357,12.6570365506675,67.4086233311447
2015-02-09_similitude_incprevrounds_weight0.3,52,0.252605653753695,0.0475064332768345,12.3768877216021,67.802582622018
2015-02-09_similitude_incprevrounds_weight0.3,53,0.253064767189651,0.0475496007407997,12.7402057342963,68.0258262201795
2015-02-09_similitude_incprevrounds_weight0.3,54,0.253197508069699,0.0475275674306654,12.5388487634056,68.0083169183629
2015-02-09_similitude_incprevrounds_weight0.3,55,0.253718330097173,0.0475600847054677,12.4075289997811,67.7960166338367
2015-02-09_similitude_incprevrounds_weight0.3,56,0.253837310056373,0.0476111535024327,12.7971109652003,67.4742832129569
2015-02-09_similitude_incprevrounds_weight0.3,57,0.254654981366693,0.047647221379031,12.7248850952068,67.6296782665791
2015-02-09_similitude_incprevrounds_weight0.3,58,0.254954712139994,0.0477089208235276,12.5388487634056,68.0280148829065
2015-02-09_similitude_incprevrounds_weight0.3,59,0.255129844892081,0.0477414485205333,12.7380170715693,68.1790326110746
2015-02-09_similitude_incprevrounds_weight0.3,60,0.254934019511422,0.0477981453073679,12.6614138761217,68.3782009192383
2015-02-09_similitude_incprevrounds_weight0.3,61,0.254718969985532,0.0477559870402366,12.3353031297877,68.1396366819873
2015-02-09_similitude_incprevrounds_weight0.3,62,0.255224303681993,0.0477715444004246,12.8102429415627,67.8419785511053
2015-02-09_similitude_incprevrounds_weight0.3,63,0.254767392491737,0.0477446228040363,12.4272269643248,67.7259794265704
2015-02-09_similitude_incprevrounds_weight0.3,64,0.254909658544584,0.0477981310643502,12.3943970234187,67.9207704092799
2015-02-09_similitude_incprevrounds_weight0.3,65,0.255093618267035,0.0478115299508013,12.639527248851,68.0214488947253
2015-02-09_similitude_incprevrounds_weight0.3,66,0.255221439682757,0.0478361607334991,12.4140949879624,68.1812212738017
2015-02-09_similitude_incprevrounds_weight0.3,67,0.255718898370937,0.0478772408955719,12.6220179470344,68.0499015101773
2015-02-09_similitude_incprevrounds_weight0.3,68,0.255812072116281,0.0478606688178839,12.5541694024951,68.0039395929087
2015-02-09_similitude_incprevrounds_weight0.3,69,0.256327892980018,0.047915051993984,12.5651127161304,68.1089954038083
2015-02-09_similitude_incprevrounds_weight0.3,70,0.256338729948343,0.0479495682968482,12.5673013788575,68.2622017947034
2015-02-09_similitude_incprevrounds_weight0.3,71,0.256326311956027,0.0479610597477266,12.5760560297658,68.2600131319764
2015-02-09_similitude_incprevrounds_weight0.3,72,0.256732456013612,0.0479589536130649,12.6833005033924,68.3694462683301
2015-02-09_similitude_incprevrounds_weight0.3,73,0.257133981698772,0.0479929167355017,12.6088859706719,68.4088421974174
2015-02-09_similitude_incprevrounds_weight0.3,74,0.257402250750232,0.0480181511008543,12.5257167870431,68.4963887065003
2015-02-09_similitude_incprevrounds_weight0.3,75,0.257076126401725,0.0480273100069272,12.7796016633837,68.4307288246881
2015-02-09_similitude_incprevrounds_weight0.3,76,0.256993039571291,0.0480414842036359,12.6592252133946,68.2950317356095
2015-02-09_similitude_incprevrounds_weight0.3,77,0.257121843750683,0.0480879915495523,12.5300941124973,68.1812212738017
2015-02-09_similitude_incprevrounds_weight0.3,78,0.257326997249808,0.048111545729377,12.4097176625082,68.1702779601663
2015-02-09_similitude_incprevrounds_weight0.3,79,0.257833329367135,0.0481285875063473,12.5738673670387,68.3563142919676
2015-02-09_similitude_incprevrounds_weight0.3,80,0.257873359086371,0.04812233418427,12.6898664915736,68.5051433574086
2015-02-09_similitude_incprevrounds_weight0.3,81,0.257772466650163,0.048152203327117,12.3199824906982,68.4745020792296
2015-02-09_similitude_incprevrounds_weight0.3,82,0.257664717365752,0.0481460136158941,12.6066973079448,68.4066535346903
2015-02-09_similitude_incprevrounds_weight0.3,83,0.257949588875492,0.0481449434885788,12.6986211424819,68.456992777413
2015-02-09_similitude_incprevrounds_weight0.3,84,0.258129145330238,0.0481441097123018,12.5629240534034,68.2578244692493
2015-02-09_similitude_incprevrounds_weight0.3,85,0.257605861775544,0.0481253497460698,12.6373385861239,68.2665791201576
2015-02-09_similitude_incprevrounds_weight0.3,86,0.258305830672783,0.0482377331677112,12.6001313197636,68.4351061501423
2015-02-09_similitude_incprevrounds_weight0.3,87,0.258282144341359,0.0482156444513734,12.5279054497702,68.5489166119501
2015-02-09_similitude_incprevrounds_weight0.3,88,0.258704754833185,0.0482506829569174,12.4250383015977,68.6255198073977
2015-02-09_similitude_incprevrounds_weight0.3,89,0.258969332540492,0.0482581951986208,12.523528124316,68.5489166119501
2015-02-09_similitude_incprevrounds_weight0.3,90,0.258801838917231,0.0482316643358073,12.5913766688553,68.4438608010506
2015-02-09_similitude_incprevrounds_weight0.3,91,0.258135263105191,0.0481943528474124,12.521339461589,68.4241628365069
2015-02-09_similitude_incprevrounds_weight0.3,92,0.258655824221176,0.0482147803661985,12.3506237688772,68.4066535346903
2015-02-09_similitude_incprevrounds_weight0.3,93,0.258805440695229,0.0482883299801055,12.5016414970453,68.5073320201357
2015-02-09_similitude_incprevrounds_weight0.3,94,0.259442101320225,0.0483432420963694,12.7051871306632,68.4920113810462
2015-02-09_similitude_incprevrounds_weight0.3,95,0.259837092169987,0.0483621498807812,12.5957539943095,68.5489166119501
2015-02-09_similitude_incprevrounds_weight0.3,96,0.260158057722685,0.0483838296191581,12.3396804552418,68.5554826001313
2015-02-09_similitude_incprevrounds_weight0.3,97,0.259464699654893,0.0483294365306362,12.6001313197636,68.336616327424
2015-02-09_similitude_incprevrounds_weight0.3,98,0.259363942745094,0.0483448613917603,12.5935653315824,68.1199387174436
2015-02-09_similitude_incprevrounds_weight0.3,99,0.260191592623764,0.0483511167181076,12.4294156270519,68.2665791201576
2015-02-09_similitude_incprevrounds_weight0.3,100,0.260329416321052,0.0483617199158557,12.7489603852046,68.4482381265047
