id_simu,round,recall,precision,nodes_switching,nodes_on_best_algos
2015-02-09_static_overbig,1,0.0921622423817291,0.0168268559338823,100.0,15.845918144014
2015-02-09_static_overbig,2,0.0810892950731154,0.0164649970296727,0.0,15.845918144014
2015-02-09_static_overbig,3,0.0661933718110729,0.0140660142367304,0.0,15.845918144014
2015-02-09_static_overbig,4,0.0644549488509199,0.0136633002949488,0.0,15.845918144014
2015-02-09_static_overbig,5,0.0644549488509199,0.0136633002949488,0.0,15.845918144014
2015-02-09_static_overbig,6,0.0644549488509199,0.0136633002949488,0.0,15.845918144014
2015-02-09_static_overbig,7,0.0644549488509199,0.0136633002949488,0.0,15.845918144014
2015-02-09_static_overbig,8,0.0644549488509199,0.0136633002949488,0.0,15.845918144014
2015-02-09_static_overbig,9,0.0644549488509199,0.0136633002949488,0.0,15.845918144014
2015-02-09_static_overbig,10,0.0644551375287412,0.0136635087390181,0.0,15.845918144014
2015-02-09_static_overbig,11,0.0644551375287412,0.0136635087390181,0.0,15.845918144014
2015-02-09_static_overbig,12,0.0644551375287412,0.0136635087390181,0.0,15.845918144014
2015-02-09_static_overbig,13,0.0644551375287412,0.0136635087390181,0.0,15.845918144014
2015-02-09_static_overbig,14,0.0644551375287412,0.0136635087390181,0.0,15.845918144014
2015-02-09_static_overbig,15,0.0644551375287412,0.0136635087390181,0.0,15.845918144014
2015-02-09_static_overbig,16,0.0644551375287412,0.0136635087390181,0.0,15.845918144014
2015-02-09_static_overbig,17,0.0644551375287412,0.0136635087390181,0.0,15.845918144014
2015-02-09_static_overbig,18,0.0644551375287412,0.0136635087390181,0.0,15.845918144014
2015-02-09_static_overbig,19,0.0644551375287412,0.0136635087390181,0.0,15.845918144014
2015-02-09_static_overbig,20,0.0644551375287412,0.0136635087390181,0.0,15.845918144014
2015-02-09_static_overbig,21,0.0644551375287412,0.0136635087390181,0.0,15.845918144014
2015-02-09_static_overbig,22,0.0644551375287412,0.0136635087390181,0.0,15.845918144014
2015-02-09_static_overbig,23,0.0644551375287412,0.0136635087390181,0.0,15.845918144014
2015-02-09_static_overbig,24,0.0644551375287412,0.0136635087390181,0.0,15.845918144014
2015-02-09_static_overbig,25,0.0644551375287412,0.0136635087390181,0.0,15.845918144014
2015-02-09_static_overbig,26,0.0644551375287412,0.0136635087390181,0.0,15.845918144014
2015-02-09_static_overbig,27,0.0644551375287412,0.0136635087390181,0.0,15.845918144014
2015-02-09_static_overbig,28,0.0644551375287412,0.0136635087390181,0.0,15.845918144014
2015-02-09_static_overbig,29,0.0644551375287412,0.0136635087390181,0.0,15.845918144014
2015-02-09_static_overbig,30,0.0644551375287412,0.0136635087390181,0.0,15.845918144014
2015-02-09_static_overbig,31,0.0644551375287412,0.0136635087390181,0.0,15.845918144014
2015-02-09_static_overbig,32,0.0644551375287412,0.0136635087390181,0.0,15.845918144014
2015-02-09_static_overbig,33,0.0644551375287412,0.0136635087390181,0.0,15.845918144014
2015-02-09_static_overbig,34,0.0644551375287412,0.0136635087390181,0.0,15.845918144014
2015-02-09_static_overbig,35,0.0644551375287412,0.0136635087390181,0.0,15.845918144014
2015-02-09_static_overbig,36,0.0644551375287412,0.0136635087390181,0.0,15.845918144014
2015-02-09_static_overbig,37,0.0644551375287412,0.0136635087390181,0.0,15.845918144014
2015-02-09_static_overbig,38,0.0644551375287412,0.0136635087390181,0.0,15.845918144014
2015-02-09_static_overbig,39,0.0644551375287412,0.0136635087390181,0.0,15.845918144014
2015-02-09_static_overbig,40,0.0644551375287412,0.0136635087390181,0.0,15.845918144014
2015-02-09_static_overbig,41,0.0644551375287412,0.0136635087390181,0.0,15.845918144014
2015-02-09_static_overbig,42,0.0644551375287412,0.0136635087390181,0.0,15.845918144014
2015-02-09_static_overbig,43,0.0644551375287412,0.0136635087390181,0.0,15.845918144014
2015-02-09_static_overbig,44,0.0644551375287412,0.0136635087390181,0.0,15.845918144014
2015-02-09_static_overbig,45,0.0644551375287412,0.0136635087390181,0.0,15.845918144014
2015-02-09_static_overbig,46,0.0644551375287412,0.0136635087390181,0.0,15.845918144014
2015-02-09_static_overbig,47,0.0644551375287412,0.0136635087390181,0.0,15.845918144014
2015-02-09_static_overbig,48,0.0644551375287412,0.0136635087390181,0.0,15.845918144014
2015-02-09_static_overbig,49,0.0644551375287412,0.0136635087390181,0.0,15.845918144014
2015-02-09_static_overbig,50,0.0644551375287412,0.0136635087390181,0.0,15.845918144014
2015-02-09_static_overbig,51,0.0644551375287412,0.0136635087390181,0.0,15.845918144014
2015-02-09_static_overbig,52,0.0644551375287412,0.0136635087390181,0.0,15.845918144014
2015-02-09_static_overbig,53,0.0644551375287412,0.0136635087390181,0.0,15.845918144014
2015-02-09_static_overbig,54,0.0644551375287412,0.0136635087390181,0.0,15.845918144014
2015-02-09_static_overbig,55,0.0644551375287412,0.0136635087390181,0.0,15.845918144014
2015-02-09_static_overbig,56,0.0644551375287412,0.0136635087390181,0.0,15.845918144014
2015-02-09_static_overbig,57,0.0644551375287412,0.0136635087390181,0.0,15.845918144014
2015-02-09_static_overbig,58,0.0644551375287412,0.0136635087390181,0.0,15.845918144014
2015-02-09_static_overbig,59,0.0644551375287412,0.0136635087390181,0.0,15.845918144014
2015-02-09_static_overbig,60,0.0644551375287412,0.0136635087390181,0.0,15.845918144014
2015-02-09_static_overbig,61,0.0644551375287412,0.0136635087390181,0.0,15.845918144014
2015-02-09_static_overbig,62,0.0644551375287412,0.0136635087390181,0.0,15.845918144014
2015-02-09_static_overbig,63,0.0644551375287412,0.0136635087390181,0.0,15.845918144014
2015-02-09_static_overbig,64,0.0644551375287412,0.0136635087390181,0.0,15.845918144014
2015-02-09_static_overbig,65,0.0644551375287412,0.0136635087390181,0.0,15.845918144014
2015-02-09_static_overbig,66,0.0644551375287412,0.0136635087390181,0.0,15.845918144014
2015-02-09_static_overbig,67,0.0644551375287412,0.0136635087390181,0.0,15.845918144014
2015-02-09_static_overbig,68,0.0644551375287412,0.0136635087390181,0.0,15.845918144014
2015-02-09_static_overbig,69,0.0644551375287412,0.0136635087390181,0.0,15.845918144014
2015-02-09_static_overbig,70,0.0644551375287412,0.0136635087390181,0.0,15.845918144014
2015-02-09_static_overbig,71,0.0644551375287412,0.0136635087390181,0.0,15.845918144014
2015-02-09_static_overbig,72,0.0644551375287412,0.0136635087390181,0.0,15.845918144014
2015-02-09_static_overbig,73,0.0644551375287412,0.0136635087390181,0.0,15.845918144014
2015-02-09_static_overbig,74,0.0644551375287412,0.0136635087390181,0.0,15.845918144014
2015-02-09_static_overbig,75,0.0644551375287412,0.0136635087390181,0.0,15.845918144014
2015-02-09_static_overbig,76,0.0644551375287412,0.0136635087390181,0.0,15.845918144014
2015-02-09_static_overbig,77,0.0644551375287412,0.0136635087390181,0.0,15.845918144014
2015-02-09_static_overbig,78,0.0644551375287412,0.0136635087390181,0.0,15.845918144014
2015-02-09_static_overbig,79,0.0644551375287412,0.0136635087390181,0.0,15.845918144014
2015-02-09_static_overbig,80,0.0644551375287412,0.0136635087390181,0.0,15.845918144014
2015-02-09_static_overbig,81,0.0644551375287412,0.0136635087390181,0.0,15.845918144014
2015-02-09_static_overbig,82,0.0644551375287412,0.0136635087390181,0.0,15.845918144014
2015-02-09_static_overbig,83,0.0644551375287412,0.0136635087390181,0.0,15.845918144014
2015-02-09_static_overbig,84,0.0644551375287412,0.0136635087390181,0.0,15.845918144014
2015-02-09_static_overbig,85,0.0644551375287412,0.0136635087390181,0.0,15.845918144014
2015-02-09_static_overbig,86,0.0644551375287412,0.0136635087390181,0.0,15.845918144014
2015-02-09_static_overbig,87,0.0644551375287412,0.0136635087390181,0.0,15.845918144014
2015-02-09_static_overbig,88,0.0644551375287412,0.0136635087390181,0.0,15.845918144014
2015-02-09_static_overbig,89,0.0644551375287412,0.0136635087390181,0.0,15.845918144014
2015-02-09_static_overbig,90,0.0644551375287412,0.0136635087390181,0.0,15.845918144014
2015-02-09_static_overbig,91,0.0644551375287412,0.0136635087390181,0.0,15.845918144014
2015-02-09_static_overbig,92,0.0644551375287412,0.0136635087390181,0.0,15.845918144014
2015-02-09_static_overbig,93,0.0644551375287412,0.0136635087390181,0.0,15.845918144014
2015-02-09_static_overbig,94,0.0644551375287412,0.0136635087390181,0.0,15.845918144014
2015-02-09_static_overbig,95,0.0644551375287412,0.0136635087390181,0.0,15.845918144014
2015-02-09_static_overbig,96,0.0644551375287412,0.0136635087390181,0.0,15.845918144014
2015-02-09_static_overbig,97,0.0644551375287412,0.0136635087390181,0.0,15.845918144014
2015-02-09_static_overbig,98,0.0644551375287412,0.0136635087390181,0.0,15.845918144014
2015-02-09_static_overbig,99,0.0644551375287412,0.0136635087390181,0.0,15.845918144014
2015-02-09_static_overbig,100,0.0644551375287412,0.0136635087390181,0.0,15.845918144014
