id_simu,round,recall,precision,nodes_switching,nodes_on_best_algos
2015-02-09_static_jaccard,1,0.184939473750276,0.0320576556295547,100.0,75.311884438608
2015-02-09_static_jaccard,2,0.233807818280358,0.0425926202808585,0.0,75.311884438608
2015-02-09_static_jaccard,3,0.261179636131771,0.0486601358643122,0.0,75.311884438608
2015-02-09_static_jaccard,4,0.268985531472854,0.0506222436415528,0.0,75.311884438608
2015-02-09_static_jaccard,5,0.271154951802635,0.0511081181257025,0.0,75.311884438608
2015-02-09_static_jaccard,6,0.272185599532591,0.0513127188385491,0.0,75.311884438608
2015-02-09_static_jaccard,7,0.272220844716449,0.0513618114408012,0.0,75.311884438608
2015-02-09_static_jaccard,8,0.272444934181711,0.0513906059809743,0.0,75.311884438608
2015-02-09_static_jaccard,9,0.272379031334057,0.0514053912279426,0.0,75.311884438608
2015-02-09_static_jaccard,10,0.272472392723684,0.05142412818861,0.0,75.311884438608
2015-02-09_static_jaccard,11,0.272599835409214,0.0514360599358193,0.0,75.311884438608
2015-02-09_static_jaccard,12,0.27257027054943,0.0514462249945143,0.0,75.311884438608
2015-02-09_static_jaccard,13,0.27260483472303,0.0514568936924209,0.0,75.311884438608
2015-02-09_static_jaccard,14,0.272674282340363,0.0514596658725134,0.0,75.311884438608
2015-02-09_static_jaccard,15,0.272650703448376,0.0514610368503136,0.0,75.311884438608
2015-02-09_static_jaccard,16,0.272760003084091,0.0514727464954206,0.0,75.311884438608
2015-02-09_static_jaccard,17,0.272831024100529,0.0514735180954154,0.0,75.311884438608
2015-02-09_static_jaccard,18,0.272841037753163,0.05147834447602,0.0,75.311884438608
2015-02-09_static_jaccard,19,0.272936906547834,0.0514883073638262,0.0,75.311884438608
2015-02-09_static_jaccard,20,0.272994090934858,0.0514985320460622,0.0,75.311884438608
2015-02-09_static_jaccard,21,0.273103462916426,0.051510088071752,0.0,75.311884438608
2015-02-09_static_jaccard,22,0.273093656858184,0.0515148858232184,0.0,75.311884438608
2015-02-09_static_jaccard,23,0.273086787287414,0.0515213196149373,0.0,75.311884438608
2015-02-09_static_jaccard,24,0.273080186403367,0.0515262055634513,0.0,75.311884438608
2015-02-09_static_jaccard,25,0.273013671878163,0.0515287866578222,0.0,75.311884438608
2015-02-09_static_jaccard,26,0.272981022348756,0.0515296299133482,0.0,75.311884438608
2015-02-09_static_jaccard,27,0.272990798541169,0.0515385364254524,0.0,75.311884438608
2015-02-09_static_jaccard,28,0.273007957086949,0.0515404907083029,0.0,75.311884438608
2015-02-09_static_jaccard,29,0.272987769013625,0.0515420032152822,0.0,75.311884438608
2015-02-09_static_jaccard,30,0.272998433968019,0.0515501544930261,0.0,75.311884438608
2015-02-09_static_jaccard,31,0.273124063405267,0.0515660145331616,0.0,75.311884438608
2015-02-09_static_jaccard,32,0.273108749927321,0.0515735246100958,0.0,75.311884438608
2015-02-09_static_jaccard,33,0.27316591647494,0.0515784532229268,0.0,75.311884438608
2015-02-09_static_jaccard,34,0.273187876433226,0.051583904108994,0.0,75.311884438608
2015-02-09_static_jaccard,35,0.273131008264968,0.0515803873905028,0.0,75.311884438608
2015-02-09_static_jaccard,36,0.27312807115776,0.0515899336195317,0.0,75.311884438608
2015-02-09_static_jaccard,37,0.273151220999533,0.0515959051538753,0.0,75.311884438608
2015-02-09_static_jaccard,38,0.273162802885716,0.0516072191802176,0.0,75.311884438608
2015-02-09_static_jaccard,39,0.273210082184477,0.0516163694404997,0.0,75.311884438608
2015-02-09_static_jaccard,40,0.27323956159575,0.0516198269641782,0.0,75.311884438608
2015-02-09_static_jaccard,41,0.27316531777386,0.0516184461959474,0.0,75.311884438608
2015-02-09_static_jaccard,42,0.273154850394797,0.0516236388000627,0.0,75.311884438608
2015-02-09_static_jaccard,43,0.273142315564077,0.0516262389971364,0.0,75.311884438608
2015-02-09_static_jaccard,44,0.273165242767957,0.0516271163241431,0.0,75.311884438608
2015-02-09_static_jaccard,45,0.273195451643841,0.0516391669612033,0.0,75.311884438608
2015-02-09_static_jaccard,46,0.27322676459409,0.0516459608485285,0.0,75.311884438608
2015-02-09_static_jaccard,47,0.273133390055145,0.0516387770017368,0.0,75.311884438608
2015-02-09_static_jaccard,48,0.273153546293175,0.0516399611908652,0.0,75.311884438608
2015-02-09_static_jaccard,49,0.27318765905329,0.0516481885664157,0.0,75.311884438608
2015-02-09_static_jaccard,50,0.273218313630338,0.0516579725144871,0.0,75.311884438608
2015-02-09_static_jaccard,51,0.273233461562763,0.0516632462265663,0.0,75.311884438608
2015-02-09_static_jaccard,52,0.27324890942515,0.0516664221122704,0.0,75.311884438608
2015-02-09_static_jaccard,53,0.273298285338186,0.0516750665586762,0.0,75.311884438608
2015-02-09_static_jaccard,54,0.27330320739412,0.0516745052736738,0.0,75.311884438608
2015-02-09_static_jaccard,55,0.273314711206545,0.0516773744717553,0.0,75.311884438608
2015-02-09_static_jaccard,56,0.27330798528578,0.0516853242807465,0.0,75.311884438608
2015-02-09_static_jaccard,57,0.273228553307317,0.0516867224064076,0.0,75.311884438608
2015-02-09_static_jaccard,58,0.273209396788899,0.0516891132445519,0.0,75.311884438608
2015-02-09_static_jaccard,59,0.27317938529771,0.0516895133252903,0.0,75.311884438608
2015-02-09_static_jaccard,60,0.273125087877207,0.0516893833606779,0.0,75.311884438608
2015-02-09_static_jaccard,61,0.273130506864833,0.0516883195120458,0.0,75.311884438608
2015-02-09_static_jaccard,62,0.273306963523276,0.051696471648489,0.0,75.311884438608
2015-02-09_static_jaccard,63,0.273232540753821,0.0516957327009472,0.0,75.311884438608
2015-02-09_static_jaccard,64,0.273218450708193,0.0516957879520755,0.0,75.311884438608
2015-02-09_static_jaccard,65,0.273254616464347,0.051698513289856,0.0,75.311884438608
2015-02-09_static_jaccard,66,0.273248802527627,0.0517021741903353,0.0,75.311884438608
2015-02-09_static_jaccard,67,0.273410795866069,0.0517084538800167,0.0,75.311884438608
2015-02-09_static_jaccard,68,0.273492602151306,0.0517175427145578,0.0,75.311884438608
2015-02-09_static_jaccard,69,0.273556255385066,0.0517255531785759,0.0,75.311884438608
2015-02-09_static_jaccard,70,0.273483703769996,0.051722918438287,0.0,75.311884438608
2015-02-09_static_jaccard,71,0.273510328966499,0.0517293616574932,0.0,75.311884438608
2015-02-09_static_jaccard,72,0.273602745343215,0.0517387854342568,0.0,75.311884438608
2015-02-09_static_jaccard,73,0.273717305773056,0.0517489186111326,0.0,75.311884438608
2015-02-09_static_jaccard,74,0.273825345946768,0.0517550942260157,0.0,75.311884438608
2015-02-09_static_jaccard,75,0.273907330555019,0.0517625056912562,0.0,75.311884438608
2015-02-09_static_jaccard,76,0.273923322922265,0.0517649787639962,0.0,75.311884438608
2015-02-09_static_jaccard,77,0.273946703263185,0.0517771736653364,0.0,75.311884438608
2015-02-09_static_jaccard,78,0.273910187840871,0.0517790795479357,0.0,75.311884438608
2015-02-09_static_jaccard,79,0.273906113370557,0.0517799058544016,0.0,75.311884438608
2015-02-09_static_jaccard,80,0.273941702531349,0.0517827143977071,0.0,75.311884438608
2015-02-09_static_jaccard,81,0.273997643338561,0.0517909305516644,0.0,75.311884438608
2015-02-09_static_jaccard,82,0.274018157969688,0.0517987864882557,0.0,75.311884438608
2015-02-09_static_jaccard,83,0.274038377584706,0.051801957726539,0.0,75.311884438608
2015-02-09_static_jaccard,84,0.274017117884761,0.0518044694590438,0.0,75.311884438608
2015-02-09_static_jaccard,85,0.273989798814142,0.0518025591012105,0.0,75.311884438608
2015-02-09_static_jaccard,86,0.274080008344749,0.0518129869828763,0.0,75.311884438608
2015-02-09_static_jaccard,87,0.273993785932271,0.0518081829103281,0.0,75.311884438608
2015-02-09_static_jaccard,88,0.273986631028812,0.0518100953892644,0.0,75.311884438608
2015-02-09_static_jaccard,89,0.274030964238614,0.0518161376150291,0.0,75.311884438608
2015-02-09_static_jaccard,90,0.273983478552891,0.0518141132923567,0.0,75.311884438608
2015-02-09_static_jaccard,91,0.274026805134373,0.0518152239503476,0.0,75.311884438608
2015-02-09_static_jaccard,92,0.274042232863542,0.0518158764987974,0.0,75.311884438608
2015-02-09_static_jaccard,93,0.274084998773713,0.0518202594727268,0.0,75.311884438608
2015-02-09_static_jaccard,94,0.274160573115472,0.0518272010095369,0.0,75.311884438608
2015-02-09_static_jaccard,95,0.27422853874267,0.0518331502220683,0.0,75.311884438608
2015-02-09_static_jaccard,96,0.274187693327452,0.0518346354950317,0.0,75.311884438608
2015-02-09_static_jaccard,97,0.274162575845059,0.0518337215058565,0.0,75.311884438608
2015-02-09_static_jaccard,98,0.274239941771758,0.0518393222433073,0.0,75.311884438608
2015-02-09_static_jaccard,99,0.274268289651999,0.0518413291475034,0.0,75.311884438608
2015-02-09_static_jaccard,100,0.274332691009166,0.0518467840123942,0.0,75.311884438608
