---- Begin input file loading
Num users read:	6017
---- End of input file loading

Number of nodes where BestAlgos matched perfectly across both runs:	2530	42.048%
Number of nodes where BestAlgos matched partially across both runs:	2158	35.865%
Average number of items per users for the ones not matching:	90


real	0m1.572s
user	0m3.199s
sys	0m1.845s
