id_simu,round,recall,precision,nodes_switching,nodes_on_best_algos
2015-02-09_static_jaccard,1,0.199135898490522,0.0311348275291991,100.0,81.4026923716138
2015-02-09_static_jaccard,2,0.230771037470887,0.0349343424958404,0.0,81.4026923716138
2015-02-09_static_jaccard,3,0.249191798599009,0.0368690873178358,0.0,81.4026923716138
2015-02-09_static_jaccard,4,0.257914827505148,0.0377980213194663,0.0,81.4026923716138
2015-02-09_static_jaccard,5,0.2606007117659,0.0381941612416498,0.0,81.4026923716138
2015-02-09_static_jaccard,6,0.261846348601893,0.0383215647649352,0.0,81.4026923716138
2015-02-09_static_jaccard,7,0.262307294909336,0.0383730045071539,0.0,81.4026923716138
2015-02-09_static_jaccard,8,0.262473298163714,0.0383865953045189,0.0,81.4026923716138
2015-02-09_static_jaccard,9,0.262712102284799,0.0384135523531594,0.0,81.4026923716138
2015-02-09_static_jaccard,10,0.262827321524486,0.0384393382477958,0.0,81.4026923716138
2015-02-09_static_jaccard,11,0.263147526530402,0.0384825338058923,0.0,81.4026923716138
2015-02-09_static_jaccard,12,0.263260798437864,0.0384995375092839,0.0,81.4026923716138
2015-02-09_static_jaccard,13,0.263293767125813,0.0385052957540485,0.0,81.4026923716138
2015-02-09_static_jaccard,14,0.263360997419027,0.038503462261649,0.0,81.4026923716138
2015-02-09_static_jaccard,15,0.263472089120211,0.0385096933196914,0.0,81.4026923716138
2015-02-09_static_jaccard,16,0.263616073837707,0.0385221939355402,0.0,81.4026923716138
2015-02-09_static_jaccard,17,0.26367753724253,0.038534284669505,0.0,81.4026923716138
2015-02-09_static_jaccard,18,0.263694285875367,0.0385419421170058,0.0,81.4026923716138
2015-02-09_static_jaccard,19,0.263749904883135,0.0385479426513483,0.0,81.4026923716138
2015-02-09_static_jaccard,20,0.263731978947863,0.0385544900328092,0.0,81.4026923716138
2015-02-09_static_jaccard,21,0.263715791326013,0.0385595678114145,0.0,81.4026923716138
2015-02-09_static_jaccard,22,0.263860704224574,0.0385818046122624,0.0,81.4026923716138
2015-02-09_static_jaccard,23,0.263967673777413,0.0385915975985599,0.0,81.4026923716138
2015-02-09_static_jaccard,24,0.26389361085427,0.038582883888957,0.0,81.4026923716138
2015-02-09_static_jaccard,25,0.264001106230385,0.0385963688308319,0.0,81.4026923716138
2015-02-09_static_jaccard,26,0.264061323516236,0.038595329063469,0.0,81.4026923716138
2015-02-09_static_jaccard,27,0.263992415670365,0.0385930300573196,0.0,81.4026923716138
2015-02-09_static_jaccard,28,0.264061181289337,0.0386069325722559,0.0,81.4026923716138
2015-02-09_static_jaccard,29,0.264198818512511,0.0386139327960063,0.0,81.4026923716138
2015-02-09_static_jaccard,30,0.264332264839306,0.0386389700834967,0.0,81.4026923716138
2015-02-09_static_jaccard,31,0.264338928678086,0.0386406192609609,0.0,81.4026923716138
2015-02-09_static_jaccard,32,0.264390135314536,0.0386393243560187,0.0,81.4026923716138
2015-02-09_static_jaccard,33,0.264485379905715,0.0386439109623912,0.0,81.4026923716138
2015-02-09_static_jaccard,34,0.26455196256225,0.0386544974480976,0.0,81.4026923716138
2015-02-09_static_jaccard,35,0.26466880674655,0.0386676875474476,0.0,81.4026923716138
2015-02-09_static_jaccard,36,0.264772670225749,0.0386717160355443,0.0,81.4026923716138
2015-02-09_static_jaccard,37,0.264983835471787,0.038678439676416,0.0,81.4026923716138
2015-02-09_static_jaccard,38,0.264981729540573,0.0386813557144759,0.0,81.4026923716138
2015-02-09_static_jaccard,39,0.264944284669322,0.0386677920901725,0.0,81.4026923716138
2015-02-09_static_jaccard,40,0.264917533479957,0.0386746319906098,0.0,81.4026923716138
2015-02-09_static_jaccard,41,0.264984586434534,0.0386771903207073,0.0,81.4026923716138
2015-02-09_static_jaccard,42,0.264996633202526,0.0386751208189607,0.0,81.4026923716138
2015-02-09_static_jaccard,43,0.26502235299808,0.0386852120255846,0.0,81.4026923716138
2015-02-09_static_jaccard,44,0.265121131842393,0.0386898888064597,0.0,81.4026923716138
2015-02-09_static_jaccard,45,0.265129034927898,0.0386965797509634,0.0,81.4026923716138
2015-02-09_static_jaccard,46,0.265113950440842,0.0386951244462186,0.0,81.4026923716138
2015-02-09_static_jaccard,47,0.26516931133769,0.0386954243129651,0.0,81.4026923716138
2015-02-09_static_jaccard,48,0.265213585274836,0.0387039721408413,0.0,81.4026923716138
2015-02-09_static_jaccard,49,0.265225782875896,0.0387136087894568,0.0,81.4026923716138
2015-02-09_static_jaccard,50,0.265285385026007,0.0387206816359632,0.0,81.4026923716138
2015-02-09_static_jaccard,51,0.265347334944124,0.0387302077607146,0.0,81.4026923716138
2015-02-09_static_jaccard,52,0.265496570405099,0.0387389917904506,0.0,81.4026923716138
2015-02-09_static_jaccard,53,0.265445118784047,0.0387438965217311,0.0,81.4026923716138
2015-02-09_static_jaccard,54,0.265418225990834,0.0387365915971116,0.0,81.4026923716138
2015-02-09_static_jaccard,55,0.265569290692315,0.0387500300168728,0.0,81.4026923716138
2015-02-09_static_jaccard,56,0.265504024871642,0.038743930389394,0.0,81.4026923716138
2015-02-09_static_jaccard,57,0.265453088905185,0.0387448966690651,0.0,81.4026923716138
2015-02-09_static_jaccard,58,0.26553007262032,0.0387511460563967,0.0,81.4026923716138
2015-02-09_static_jaccard,59,0.265589601920691,0.0387658853854227,0.0,81.4026923716138
2015-02-09_static_jaccard,60,0.265658343274355,0.0387769587904465,0.0,81.4026923716138
2015-02-09_static_jaccard,61,0.26569623422188,0.038773886109877,0.0,81.4026923716138
2015-02-09_static_jaccard,62,0.265739760628369,0.038780722024391,0.0,81.4026923716138
2015-02-09_static_jaccard,63,0.265664239683458,0.0387734219117926,0.0,81.4026923716138
2015-02-09_static_jaccard,64,0.265709304573341,0.0387787921020099,0.0,81.4026923716138
2015-02-09_static_jaccard,65,0.26574532027279,0.0387851250119457,0.0,81.4026923716138
2015-02-09_static_jaccard,66,0.265842421551474,0.0387906816434712,0.0,81.4026923716138
2015-02-09_static_jaccard,67,0.265833957894115,0.0387884771395833,0.0,81.4026923716138
2015-02-09_static_jaccard,68,0.265922283077225,0.0387995717799586,0.0,81.4026923716138
2015-02-09_static_jaccard,69,0.266011798254081,0.0388080863065,0.0,81.4026923716138
2015-02-09_static_jaccard,70,0.265995347947072,0.0388083887765822,0.0,81.4026923716138
2015-02-09_static_jaccard,71,0.265937526804398,0.0388062998929649,0.0,81.4026923716138
2015-02-09_static_jaccard,72,0.265978587310405,0.038808428410837,0.0,81.4026923716138
2015-02-09_static_jaccard,73,0.265980438221278,0.0388111145543923,0.0,81.4026923716138
2015-02-09_static_jaccard,74,0.265917972277975,0.0388054857067065,0.0,81.4026923716138
2015-02-09_static_jaccard,75,0.26599116478373,0.0388114899316936,0.0,81.4026923716138
2015-02-09_static_jaccard,76,0.265988976808288,0.038819905347247,0.0,81.4026923716138
2015-02-09_static_jaccard,77,0.266095171129347,0.0388256258422139,0.0,81.4026923716138
2015-02-09_static_jaccard,78,0.266127175957531,0.0388251596516017,0.0,81.4026923716138
2015-02-09_static_jaccard,79,0.266096283705079,0.0388262860940708,0.0,81.4026923716138
2015-02-09_static_jaccard,80,0.266151536785535,0.0388349171956002,0.0,81.4026923716138
2015-02-09_static_jaccard,81,0.266201363858103,0.0388379546921707,0.0,81.4026923716138
2015-02-09_static_jaccard,82,0.266290006064023,0.0388317983803784,0.0,81.4026923716138
2015-02-09_static_jaccard,83,0.266254672264682,0.03883188931787,0.0,81.4026923716138
2015-02-09_static_jaccard,84,0.266214790857397,0.0388282498605098,0.0,81.4026923716138
2015-02-09_static_jaccard,85,0.266262427851731,0.0388359325390992,0.0,81.4026923716138
2015-02-09_static_jaccard,86,0.266262515777179,0.0388319110947155,0.0,81.4026923716138
2015-02-09_static_jaccard,87,0.266215125019968,0.0388358914591624,0.0,81.4026923716138
2015-02-09_static_jaccard,88,0.266274144808505,0.0388296865587204,0.0,81.4026923716138
2015-02-09_static_jaccard,89,0.266270701977289,0.038826098541333,0.0,81.4026923716138
2015-02-09_static_jaccard,90,0.266361542122147,0.0388301956535127,0.0,81.4026923716138
2015-02-09_static_jaccard,91,0.266381378268518,0.0388293974584572,0.0,81.4026923716138
2015-02-09_static_jaccard,92,0.266355977486183,0.0388286979238927,0.0,81.4026923716138
2015-02-09_static_jaccard,93,0.266400032042083,0.0388280211637978,0.0,81.4026923716138
2015-02-09_static_jaccard,94,0.266419268196955,0.0388318151519403,0.0,81.4026923716138
2015-02-09_static_jaccard,95,0.266451966043205,0.0388387305033413,0.0,81.4026923716138
2015-02-09_static_jaccard,96,0.266459122532598,0.0388370734403507,0.0,81.4026923716138
2015-02-09_static_jaccard,97,0.266566152112128,0.0388490076394857,0.0,81.4026923716138
2015-02-09_static_jaccard,98,0.266591151976445,0.0388539666556876,0.0,81.4026923716138
2015-02-09_static_jaccard,99,0.266649376736392,0.0388521702225652,0.0,81.4026923716138
2015-02-09_static_jaccard,100,0.266661520754895,0.0388556159970584,0.0,81.4026923716138
